
{
  "header": {
    "event": "Allocation failed - JavaScript heap out of memory",
    "trigger": "FatalError",
    "filename": "report.20210105.044841.7972.0.001.json",
    "dumpEventTime": "2021-01-05T04:48:41Z",
    "dumpEventTimeStamp": "1609796921235",
    "processId": 7972,
    "cwd": "C:\\Projects\\Html\\creatify",
    "commandLine": [
      "node",
      "C:\\Projects\\Html\\creatify\\node_modules\\webpack\\bin\\webpack.js",
      "--progress",
      "--hide-modules",
      "--config=node_modules/laravel-mix/setup/webpack.config.js",
      "--watch"
    ],
    "nodejsVersion": "v12.5.0",
    "wordSize": 64,
    "arch": "x64",
    "platform": "win32",
    "componentVersions": {
      "node": "12.5.0",
      "v8": "7.5.288.22-node.14",
      "uv": "1.29.1",
      "zlib": "1.2.11",
      "brotli": "1.0.7",
      "ares": "1.15.0",
      "modules": "72",
      "nghttp2": "1.38.0",
      "napi": "4",
      "llhttp": "1.1.4",
      "http_parser": "2.8.0",
      "openssl": "1.1.1c",
      "cldr": "35.1",
      "icu": "64.2",
      "tz": "2019a",
      "unicode": "12.1"
    },
    "release": {
      "name": "node",
      "headersUrl": "https://nodejs.org/download/release/v12.5.0/node-v12.5.0-headers.tar.gz",
      "sourceUrl": "https://nodejs.org/download/release/v12.5.0/node-v12.5.0.tar.gz",
      "libUrl": "https://nodejs.org/download/release/v12.5.0/win-x64/node.lib"
    },
    "osName": "Windows_NT",
    "osRelease": "10.0.18363",
    "osVersion": "Windows 10 Pro",
    "osMachine": "x86_64",
    "cpus": [
      {
        "model": "Intel(R) Core(TM) i5-4210U CPU @ 1.70GHz",
        "speed": 2394,
        "user": 1950140,
        "nice": 0,
        "sys": 1154328,
        "idle": 11325656,
        "irq": 153500
      },
      {
        "model": "Intel(R) Core(TM) i5-4210U CPU @ 1.70GHz",
        "speed": 2394,
        "user": 1950140,
        "nice": 0,
        "sys": 1154328,
        "idle": 11325656,
        "irq": 153500
      },
      {
        "model": "Intel(R) Core(TM) i5-4210U CPU @ 1.70GHz",
        "speed": 2394,
        "user": 1950140,
        "nice": 0,
        "sys": 1154328,
        "idle": 11325656,
        "irq": 153500
      },
      {
        "model": "Intel(R) Core(TM) i5-4210U CPU @ 1.70GHz",
        "speed": 2394,
        "user": 1950140,
        "nice": 0,
        "sys": 1154328,
        "idle": 11325656,
        "irq": 153500
      }
    ],
    "host": "halimtuhu"
  },
  "javascriptStack": {
    "message": "No stack.",
    "stack": [
      "Unavailable."
    ]
  },
  "nativeStack": [
    {
      "pc": "0x00007ff6b1e46e09",
      "symbol": "std::basic_ostream<char,std::char_traits<char> >::operator<<+10889"
    },
    {
      "pc": "0x00007ff6b1e4a704",
      "symbol": "std::basic_ostream<char,std::char_traits<char> >::operator<<+25476"
    },
    {
      "pc": "0x00007ff6b1e49728",
      "symbol": "std::basic_ostream<char,std::char_traits<char> >::operator<<+21416"
    },
    {
      "pc": "0x00007ff6b1f32f5b",
      "symbol": "v8::base::CPU::has_sse+38011"
    },
    {
      "pc": "0x00007ff6b2717e2e",
      "symbol": "v8::Isolate::ReportExternalAllocationLimitReached+94"
    },
    {
      "pc": "0x00007ff6b270017a",
      "symbol": "v8::SharedArrayBuffer::Externalize+842"
    },
    {
      "pc": "0x00007ff6b259197c",
      "symbol": "v8::internal::Heap::EphemeronKeyWriteBarrierFromCode+1436"
    },
    {
      "pc": "0x00007ff6b259989f",
      "symbol": "v8::internal::Heap::OldGenerationSizeOfObjects+4879"
    },
    {
      "pc": "0x00007ff6b258fb43",
      "symbol": "v8::internal::Heap::CollectGarbage+1235"
    },
    {
      "pc": "0x00007ff6b258e3d4",
      "symbol": "v8::internal::Heap::AddRetainedMap+2292"
    },
    {
      "pc": "0x00007ff6b25aceb5",
      "symbol": "v8::internal::Factory::NewFillerObject+53"
    },
    {
      "pc": "0x00007ff6b236321d",
      "symbol": "v8::internal::interpreter::JumpTableTargetOffsets::iterator::operator=+3757"
    },
    {
      "pc": "0x00007ff6b27c0b1d",
      "symbol": "v8::internal::SetupIsolateDelegate::SetupHeap+614605"
    },
    {
      "pc": "0x0000022e0ed67593",
      "symbol": ""
    }
  ],
  "javascriptHeap": {
    "totalMemory": 2155589632,
    "totalCommittedMemory": 2155589632,
    "usedMemory": 2083656376,
    "availableMemory": 48818888,
    "memoryLimit": 2197815296,
    "heapSpaces": {
      "read_only_space": {
        "memorySize": 262144,
        "committedMemory": 262144,
        "capacity": 261832,
        "used": 31960,
        "available": 229872
      },
      "new_space": {
        "memorySize": 4194304,
        "committedMemory": 4194304,
        "capacity": 2094656,
        "used": 372904,
        "available": 1721752
      },
      "old_space": {
        "memorySize": 1926639616,
        "committedMemory": 1926639616,
        "capacity": 1866112736,
        "used": 1863565792,
        "available": 2546944
      },
      "code_space": {
        "memorySize": 1474560,
        "committedMemory": 1474560,
        "capacity": 1311552,
        "used": 1311552,
        "available": 0
      },
      "map_space": {
        "memorySize": 6557696,
        "committedMemory": 6557696,
        "capacity": 2116000,
        "used": 2116000,
        "available": 0
      },
      "large_object_space": {
        "memorySize": 215838720,
        "committedMemory": 215838720,
        "capacity": 215707864,
        "used": 215707864,
        "available": 0
      },
      "code_large_object_space": {
        "memorySize": 622592,
        "committedMemory": 622592,
        "capacity": 550304,
        "used": 550304,
        "available": 0
      },
      "new_large_object_space": {
        "memorySize": 0,
        "committedMemory": 0,
        "capacity": 2094656,
        "used": 0,
        "available": 2094656
      }
    }
  },
  "resourceUsage": {
    "userCpuSeconds": 1471.67,
    "kernelCpuSeconds": 41.843,
    "cpuConsumptionPercent": 15.7691,
    "maxRss": 2406420480,
    "pageFaults": {
      "IORequired": 9277290,
      "IONotRequired": 0
    },
    "fsActivity": {
      "reads": 4711,
      "writes": 680
    }
  },
  "libuv": [
  ],
  "environmentVariables": {
    "ALLUSERSPROFILE": "C:\\ProgramData",
    "APPDATA": "C:\\Users\\halim\\AppData\\Roaming",
    "CHROME_CRASHPAD_PIPE_NAME": "\\\\.\\pipe\\crashpad_10292_PWINLIKUHGONBUSD",
    "COLORTERM": "truecolor",
    "CommonProgramFiles": "C:\\Program Files\\Common Files",
    "CommonProgramFiles(x86)": "C:\\Program Files (x86)\\Common Files",
    "CommonProgramW6432": "C:\\Program Files\\Common Files",
    "COMPUTERNAME": "HALIMTUHU",
    "ComSpec": "C:\\WINDOWS\\system32\\cmd.exe",
    "DriverData": "C:\\Windows\\System32\\Drivers\\DriverData",
    "GIT_ASKPASS": "c:\\Program Files\\Microsoft VS Code\\resources\\app\\extensions\\git\\dist\\askpass.sh",
    "HOME": "C:\\Users\\halim",
    "HOMEDRIVE": "C:",
    "HOMEPATH": "\\Users\\halim",
    "INIT_CWD": "C:\\Projects\\Html\\creatify",
    "IntelliJ IDEA Community Edition": "C:\\Program Files\\JetBrains\\IntelliJ IDEA Community Edition 2019.2\\bin;",
    "JetBrains Rider": "C:\\Program Files\\JetBrains\\JetBrains Rider 2020.1.2\\bin;",
    "LANG": "en_GB.UTF-8",
    "LOCALAPPDATA": "C:\\Users\\halim\\AppData\\Local",
    "LOGONSERVER": "\\\\HALIMTUHU",
    "NODE": "C:\\Projects\\Laragon\\bin\\nodejs\\node-v12\\node.exe",
    "NODE_ENV": "development",
    "NODE_EXE": "C:\\Projects\\Laragon\\bin\\nodejs\\node-v12\\\\node.exe",
    "NPM_CLI_JS": "C:\\Projects\\Laragon\\bin\\nodejs\\node-v12\\node_modules\\npm\\bin\\npm-cli.js",
    "npm_config_access": "",
    "npm_config_allow_same_version": "",
    "npm_config_also": "",
    "npm_config_always_auth": "",
    "npm_config_argv": "{\"remain\":[\"--watch\"],\"cooked\":[\"run\",\"development\",\"--\",\"--watch\"],\"original\":[\"run\",\"development\",\"--\",\"--watch\"]}",
    "npm_config_audit": "true",
    "npm_config_audit_level": "low",
    "npm_config_auth_type": "legacy",
    "npm_config_before": "",
    "npm_config_bin_links": "true",
    "npm_config_browser": "",
    "npm_config_ca": "",
    "npm_config_cache": "C:\\Users\\halim\\AppData\\Roaming\\npm-cache",
    "npm_config_cache_lock_retries": "10",
    "npm_config_cache_lock_stale": "60000",
    "npm_config_cache_lock_wait": "10000",
    "npm_config_cache_max": "Infinity",
    "npm_config_cache_min": "10",
    "npm_config_cafile": "",
    "npm_config_cert": "",
    "npm_config_cidr": "",
    "npm_config_color": "true",
    "npm_config_commit_hooks": "true",
    "npm_config_depth": "Infinity",
    "npm_config_description": "true",
    "npm_config_dev": "",
    "npm_config_dry_run": "",
    "npm_config_editor": "notepad.exe",
    "npm_config_engine_strict": "",
    "npm_config_fetch_retries": "2",
    "npm_config_fetch_retry_factor": "10",
    "npm_config_fetch_retry_maxtimeout": "60000",
    "npm_config_fetch_retry_mintimeout": "10000",
    "npm_config_force": "",
    "npm_config_git": "git",
    "npm_config_git_tag_version": "true",
    "npm_config_global": "",
    "npm_config_globalconfig": "C:\\Projects\\Laragon\\bin\\nodejs\\node-v12\\etc\\npmrc",
    "npm_config_globalignorefile": "C:\\Projects\\Laragon\\bin\\nodejs\\node-v12\\etc\\npmignore",
    "npm_config_global_style": "",
    "npm_config_group": "",
    "npm_config_ham_it_up": "",
    "npm_config_heading": "npm",
    "npm_config_https_proxy": "",
    "npm_config_if_present": "",
    "npm_config_ignore_prepublish": "",
    "npm_config_ignore_scripts": "",
    "npm_config_init_author_email": "",
    "npm_config_init_author_name": "",
    "npm_config_init_author_url": "",
    "npm_config_init_license": "ISC",
    "npm_config_init_module": "C:\\Users\\halim\\.npm-init.js",
    "npm_config_init_version": "1.0.0",
    "npm_config_json": "",
    "npm_config_key": "",
    "npm_config_legacy_bundling": "",
    "npm_config_link": "",
    "npm_config_local_address": "",
    "npm_config_loglevel": "notice",
    "npm_config_logs_max": "10",
    "npm_config_long": "",
    "npm_config_maxsockets": "50",
    "npm_config_message": "%s",
    "npm_config_metrics_registry": "https://registry.npmjs.org/",
    "npm_config_node_gyp": "C:\\Projects\\Laragon\\bin\\nodejs\\node-v12\\node_modules\\npm\\node_modules\\node-gyp\\bin\\node-gyp.js",
    "npm_config_node_options": "",
    "npm_config_node_version": "12.5.0",
    "npm_config_noproxy": "",
    "npm_config_offline": "",
    "npm_config_onload_script": "",
    "npm_config_only": "",
    "npm_config_optional": "true",
    "npm_config_otp": "",
    "npm_config_package_lock": "true",
    "npm_config_package_lock_only": "",
    "npm_config_parseable": "",
    "npm_config_prefer_offline": "",
    "npm_config_prefer_online": "",
    "npm_config_prefix": "C:\\Projects\\Laragon\\bin\\nodejs\\node-v12",
    "npm_config_preid": "",
    "npm_config_production": "",
    "npm_config_progress": "",
    "npm_config_proxy": "",
    "npm_config_read_only": "",
    "npm_config_rebuild_bundle": "true",
    "npm_config_registry": "https://registry.npmjs.org/",
    "npm_config_rollback": "true",
    "npm_config_save": "true",
    "npm_config_save_bundle": "",
    "npm_config_save_dev": "",
    "npm_config_save_exact": "",
    "npm_config_save_optional": "",
    "npm_config_save_prefix": "^",
    "npm_config_save_prod": "",
    "npm_config_scope": "",
    "npm_config_scripts_prepend_node_path": "warn-only",
    "npm_config_script_shell": "",
    "npm_config_searchexclude": "",
    "npm_config_searchlimit": "20",
    "npm_config_searchopts": "",
    "npm_config_searchstaleness": "900",
    "npm_config_send_metrics": "",
    "npm_config_shell": "C:\\WINDOWS\\system32\\cmd.exe",
    "npm_config_shrinkwrap": "true",
    "npm_config_sign_git_commit": "",
    "npm_config_sign_git_tag": "",
    "npm_config_sso_poll_frequency": "500",
    "npm_config_sso_type": "oauth",
    "npm_config_strict_ssl": "true",
    "npm_config_tag": "latest",
    "npm_config_tag_version_prefix": "v",
    "npm_config_timing": "",
    "npm_config_tmp": "C:\\Users\\halim\\AppData\\Local\\Temp",
    "npm_config_umask": "0000",
    "npm_config_unicode": "",
    "npm_config_unsafe_perm": "true",
    "npm_config_update_notifier": "true",
    "npm_config_usage": "",
    "npm_config_user": "",
    "npm_config_userconfig": "C:\\Users\\halim\\.npmrc",
    "npm_config_user_agent": "npm/6.9.0 node/v12.5.0 win32 x64",
    "npm_config_version": "",
    "npm_config_versions": "",
    "npm_config_viewer": "browser",
    "npm_execpath": "C:\\Projects\\Laragon\\bin\\nodejs\\node-v12\\node_modules\\npm\\bin\\npm-cli.js",
    "npm_lifecycle_event": "development",
    "npm_lifecycle_script=cross-env NODE_ENV=development node_modules/webpack/bin/webpack.js --progress --hide-modules --config": "node_modules/laravel-mix/setup/webpack.config.js \"--watch\"",
    "npm_node_execpath": "C:\\Projects\\Laragon\\bin\\nodejs\\node-v12\\node.exe",
    "npm_package_author": "",
    "npm_package_dependencies_alpinejs": "^2.7.3",
    "npm_package_dependencies_tailwindcss": "npm:@tailwindcss/postcss7-compat@^2.0.1",
    "npm_package_dependencies__fortawesome_fontawesome_free": "^5.15.1",
    "npm_package_description": "Project for slicing web design to html",
    "npm_package_devDependencies_autoprefixer": "^9.8.6",
    "npm_package_devDependencies_cross_env": "^7.0.3",
    "npm_package_devDependencies_laravel_mix": "^5.0.9",
    "npm_package_devDependencies_postcss": "^7.0.35",
    "npm_package_devDependencies_vue_template_compiler": "^2.6.12",
    "npm_package_gitHead": "2db724c44f97a34b8bd68bde18b6be1dffe934a0",
    "npm_package_license": "ISC",
    "npm_package_main": "app.js",
    "npm_package_name": "creatify",
    "npm_package_readmeFilename": "README.md",
    "npm_package_scripts_dev": "npm run development",
    "npm_package_scripts_development=cross-env NODE_ENV=development node_modules/webpack/bin/webpack.js --progress --hide-modules --config": "node_modules/laravel-mix/setup/webpack.config.js \"--watch\"",
    "npm_package_scripts_hot=cross-env NODE_ENV=development node_modules/webpack-dev-server/bin/webpack-dev-server.js --inline --hot --config": "node_modules/laravel-mix/setup/webpack.config.js",
    "npm_package_scripts_prod": "npm run production",
    "npm_package_scripts_production=cross-env NODE_ENV=production node_modules/webpack/bin/webpack.js --no-progress --hide-modules --config": "node_modules/laravel-mix/setup/webpack.config.js",
    "npm_package_scripts_watch": "npm run development -- --watch",
    "npm_package_version": "1.0.0",
    "NPM_PREFIX_NPM_CLI_JS": "C:\\Projects\\Laragon\\bin\\nodejs\\node-v12\\node_modules\\npm\\bin\\npm-cli.js",
    "NUMBER_OF_PROCESSORS": "4",
    "OneDrive": "C:\\Users\\halim\\OneDrive - students.um.ac.id",
    "OneDriveCommercial": "C:\\Users\\halim\\OneDrive - students.um.ac.id",
    "OneDriveConsumer": "C:\\Users\\halim\\OneDrive",
    "ORIGINAL_XDG_CURRENT_DESKTOP": "undefined",
    "OS": "Windows_NT",
    "Path": "C:\\Projects\\Laragon\\bin\\nodejs\\node-v12\\node_modules\\npm\\node_modules\\npm-lifecycle\\node-gyp-bin;C:\\Projects\\Html\\creatify\\node_modules\\.bin;C:\\Projects\\Laragon\\bin\\nodejs\\node-v12\\node_modules\\npm\\node_modules\\npm-lifecycle\\node-gyp-bin;C:\\Projects\\Html\\creatify\\node_modules\\.bin;C:\\Program Files\\Java\\jdk-12.0.2\\bin;C:\\WINDOWS\\system32;C:\\WINDOWS;C:\\WINDOWS\\System32\\Wbem;C:\\WINDOWS\\System32\\WindowsPowerShell\\v1.0\\;C:\\WINDOWS\\System32\\OpenSSH\\;C:\\Program Files\\Git\\cmd;C:\\ProgramData\\ComposerSetup\\bin;C:\\Program Files (x86)\\Microsoft SQL Server\\140\\DTS\\Binn\\;C:\\Program Files\\Microsoft SQL Server\\140\\DTS\\Binn\\;C:\\Program Files\\Microsoft SQL Server\\Client SDK\\ODBC\\130\\Tools\\Binn\\;C:\\Program Files (x86)\\Microsoft SQL Server\\140\\Tools\\Binn\\;C:\\Program Files\\Microsoft SQL Server\\140\\Tools\\Binn\\;D:\\sonarqube-8.0\\scanner\\bin;D:\\sonarqube-8.0\\bin\\windows-x86-64\\;C:\\Program Files\\MongoDB\\Server\\4.2\\bin;C:\\Program Files\\Microsoft VS Code\\bin;C:\\Program Files\\dotnet\\;C:\\Program Files\\Microsoft SQL Server\\Client SDK\\ODBC\\170\\Tools\\Binn\\;C:\\Program Files (x86)\\Microsoft SQL Server\\150\\Tools\\Binn\\;C:\\Program Files\\Microsoft SQL Server\\150\\Tools\\Binn\\;C:\\Program Files\\Microsoft SQL Server\\150\\DTS\\Binn\\;C:\\Projects\\laragon\\bin;C:\\Projects\\laragon\\bin\\apache\\httpd-2.4.35-win64-VC15\\bin;C:\\Projects\\laragon\\bin\\composer;C:\\Projects\\laragon\\bin\\git\\bin;C:\\Projects\\laragon\\bin\\git\\cmd;C:\\Projects\\laragon\\bin\\git\\mingw64\\bin;C:\\Projects\\laragon\\bin\\git\\usr\\bin;C:\\Projects\\laragon\\bin\\laragon\\utils;C:\\Projects\\laragon\\bin\\mysql\\mysql-5.7.24-winx64\\bin;C:\\Projects\\laragon\\bin\\nginx\\nginx-1.16.0;C:\\Projects\\laragon\\bin\\ngrok;C:\\Projects\\laragon\\bin\\nodejs\\node-v12;C:\\Projects\\laragon\\bin\\notepad++;C:\\Projects\\laragon\\bin\\php\\php-7.4.8-Win32-vc15-x64;C:\\Projects\\laragon\\bin\\putty;C:\\Projects\\laragon\\bin\\redis\\redis-x64-3.2.100;C:\\Projects\\laragon\\bin\\telnet;C:\\Projects\\laragon\\usr\\bin;C:\\Users\\halim\\AppData\\Local\\Yarn\\config\\global\\node_modules\\.bin;C:\\Users\\halim\\AppData\\Roaming\\Composer\\vendor\\bin;C:\\Users\\halim\\AppData\\Roaming\\npm;C:\\Users\\halim\\AppData\\Local\\Microsoft\\WindowsApps;C:\\Program Files\\JetBrains\\PhpStorm 2019.2\\bin;C:\\Users\\halim\\.dotnet\\tools;C:\\Program Files\\JetBrains\\JetBrains Rider 2020.1.2\\bin;",
    "PATHEXT": ".COM;.EXE;.BAT;.CMD;.VBS;.VBE;.JSE;.WSF;.WSH;.MSC;.CPL",
    "PhpStorm": "C:\\Program Files\\JetBrains\\PhpStorm 2019.2\\bin;",
    "PROCESSOR_ARCHITECTURE": "AMD64",
    "PROCESSOR_IDENTIFIER": "Intel64 Family 6 Model 69 Stepping 1, GenuineIntel",
    "PROCESSOR_LEVEL": "6",
    "PROCESSOR_REVISION": "4501",
    "ProgramData": "C:\\ProgramData",
    "ProgramFiles": "C:\\Program Files",
    "ProgramFiles(x86)": "C:\\Program Files (x86)",
    "ProgramW6432": "C:\\Program Files",
    "PROMPT": "$P$G",
    "PSModulePath": "D:\\halimtuhu\\Documents\\WindowsPowerShell\\Modules;C:\\Program Files\\WindowsPowerShell\\Modules;C:\\WINDOWS\\system32\\WindowsPowerShell\\v1.0\\Modules;C:\\Program Files (x86)\\Microsoft SQL Server\\140\\Tools\\PowerShell\\Modules\\;C:\\Program Files (x86)\\Microsoft SQL Server\\150\\Tools\\PowerShell\\Modules\\",
    "PUBLIC": "C:\\Users\\Public",
    "SESSIONNAME": "Console",
    "SystemDrive": "C:",
    "SystemRoot": "C:\\WINDOWS",
    "TEMP": "C:\\Users\\halim\\AppData\\Local\\Temp",
    "TERM_PROGRAM": "vscode",
    "TERM_PROGRAM_VERSION": "1.52.1",
    "TMP": "C:\\Users\\halim\\AppData\\Local\\Temp",
    "USERDOMAIN": "HALIMTUHU",
    "USERDOMAIN_ROAMINGPROFILE": "HALIMTUHU",
    "USERNAME": "halimtuhu",
    "USERPROFILE": "C:\\Users\\halim",
    "VSCODE_GIT_ASKPASS_MAIN": "c:\\Program Files\\Microsoft VS Code\\resources\\app\\extensions\\git\\dist\\askpass-main.js",
    "VSCODE_GIT_ASKPASS_NODE": "C:\\Program Files\\Microsoft VS Code\\Code.exe",
    "VSCODE_GIT_IPC_HANDLE": "\\\\.\\pipe\\vscode-git-5d636f49fb-sock",
    "windir": "C:\\WINDOWS"
  },
  "sharedObjects": [
    "C:\\Projects\\laragon\\bin\\nodejs\\node-v12\\node.exe",
    "C:\\WINDOWS\\SYSTEM32\\ntdll.dll",
    "C:\\WINDOWS\\System32\\KERNEL32.DLL",
    "C:\\WINDOWS\\System32\\KERNELBASE.dll",
    "C:\\WINDOWS\\System32\\WS2_32.dll",
    "C:\\WINDOWS\\System32\\RPCRT4.dll",
    "C:\\WINDOWS\\SYSTEM32\\dbghelp.dll",
    "C:\\WINDOWS\\System32\\ADVAPI32.dll",
    "C:\\WINDOWS\\System32\\ucrtbase.dll",
    "C:\\WINDOWS\\System32\\msvcrt.dll",
    "C:\\WINDOWS\\System32\\sechost.dll",
    "C:\\WINDOWS\\System32\\USER32.dll",
    "C:\\WINDOWS\\System32\\win32u.dll",
    "C:\\WINDOWS\\System32\\GDI32.dll",
    "C:\\WINDOWS\\System32\\gdi32full.dll",
    "C:\\WINDOWS\\System32\\msvcp_win.dll",
    "C:\\WINDOWS\\System32\\PSAPI.DLL",
    "C:\\WINDOWS\\System32\\CRYPT32.dll",
    "C:\\WINDOWS\\System32\\MSASN1.dll",
    "C:\\WINDOWS\\System32\\bcrypt.dll",
    "C:\\WINDOWS\\SYSTEM32\\USERENV.dll",
    "C:\\WINDOWS\\SYSTEM32\\IPHLPAPI.DLL",
    "C:\\WINDOWS\\System32\\profapi.dll",
    "C:\\WINDOWS\\SYSTEM32\\WINMM.dll",
    "C:\\WINDOWS\\SYSTEM32\\WINMMBASE.dll",
    "C:\\WINDOWS\\System32\\cfgmgr32.dll",
    "C:\\WINDOWS\\System32\\bcryptPrimitives.dll",
    "C:\\WINDOWS\\System32\\IMM32.DLL",
    "C:\\WINDOWS\\System32\\powrprof.dll",
    "C:\\WINDOWS\\System32\\UMPDC.dll",
    "C:\\WINDOWS\\system32\\uxtheme.dll",
    "C:\\WINDOWS\\System32\\combase.dll",
    "C:\\WINDOWS\\system32\\mswsock.dll",
    "C:\\WINDOWS\\System32\\kernel.appcore.dll",
    "C:\\WINDOWS\\SYSTEM32\\ntmarta.dll",
    "C:\\WINDOWS\\system32\\napinsp.dll",
    "C:\\WINDOWS\\system32\\pnrpnsp.dll",
    "C:\\WINDOWS\\system32\\wshbth.dll",
    "C:\\WINDOWS\\system32\\NLAapi.dll",
    "C:\\WINDOWS\\SYSTEM32\\DNSAPI.dll",
    "C:\\WINDOWS\\System32\\NSI.dll",
    "C:\\WINDOWS\\System32\\winrnr.dll"
  ]
}